{
	"additionalNodes": [],
	"additionalParameters": {
		"root": {
			"height": 128,
			"width": 285
		}
	},
	"inputs": [],
	"outputs": [],
	"properties": {
		"239DPHdAik4GT7BQWama6fBQLR40uKV2": {
			"height": 70,
			"title": "roleSplit",
			"width": 202,
			"x": 995,
			"y": -35
		},
		"3ZIUUsvUOWRlmRjGpdJdL4RaWUIaNtBw": {
			"height": 109,
			"title": "store",
			"width": 778,
			"x": 1019,
			"y": -364
		},
		"EWZvka2PQvguq3QeKB8UQNGe0TKMWYQ0": {
			"height": 92,
			"title": "store",
			"width": 201,
			"x": 1035,
			"y": -194
		},
		"KxU2ejkn1X5uED7bw0aeSwQn1TPZj9YE": {
			"height": 90,
			"title": "luaCondition",
			"width": 194,
			"x": 690,
			"y": -503
		},
		"NgWRcmyGm6cKNqXc7Ku9pRHxpApncTMu": {
			"height": 90,
			"title": "luaCondition",
			"width": 194,
			"x": 704,
			"y": -193
		},
		"P74sIRXxZblNwT6dUlmrTFVQlGLMIVUH": {
			"height": 54,
			"title": "success",
			"width": 132,
			"x": 1018,
			"y": -413
		},
		"VOxHroPnr0WaSqZGLEoUxrhY6HiVB1v6": {
			"height": 94,
			"title": "store",
			"width": 259,
			"x": 1030,
			"y": -515
		},
		"Y9j0YKroGqGHW4Is87BzAL6CEz0WCZDd": {
			"height": 60,
			"title": "sequence",
			"width": 143,
			"x": 1504,
			"y": 296
		},
		"a98bU8I7cDkAfkhYcbV2crlFkCOSIGaK": {
			"height": 60,
			"title": "sequence",
			"width": 143,
			"x": 1511,
			"y": 9
		},
		"c9sI5h7PSZSPKt290rSNl5hmXzfTXdsX": {
			"height": 54,
			"title": "success",
			"width": 132,
			"x": 1037,
			"y": -110
		},
		"mghKiXguM9kbkOYX93WIHg9QYXoOoyHH": {
			"height": 72,
			"title": "nota_ama_firstkillerbot.scoutEnemyLocations",
			"width": 348,
			"x": 1711,
			"y": 1
		},
		"oAxtqojq1BOniOEITfkUmYM7ipXBrkSO": {
			"height": 54,
			"title": "success",
			"width": 132,
			"x": 1034,
			"y": -252
		},
		"qrhee9vW2oyuL1jSDjKAAML3sPZiXSZy": {
			"height": 60,
			"title": "sequence",
			"width": 143,
			"x": 399,
			"y": 30
		},
		"ynWz0vSBV1zQikb3GIn8bcU2AsQNTbDK": {
			"height": 90,
			"title": "luaCondition",
			"width": 198,
			"x": 691,
			"y": -367
		},
		"yuW5UV2Lhon3An6oxnFXge0XJQHDNxEP": {
			"height": 112,
			"title": "nota_ama_firstkillerbot.transportAlliesToSafePosition",
			"width": 395,
			"x": 1958,
			"y": 280
		}
	},
	"roles": [ {
		"categories": [ "nota_ama_firstkillerbot.Peepers" ],
		"name": "Peeps"
	}, {
		"categories": [ "nota_ama_firstkillerbot.atlasses" ],
		"name": "Trans"
	} ],
	"root": {
		"children": [ {
			"children": [ {
				"children": [],
				"id": "VOxHroPnr0WaSqZGLEoUxrhY6HiVB1v6",
				"nodeType": "luaCommand",
				"parameters": [ {
					"name": "var",
					"value": "misa"
				}, {
					"name": "value",
					"value": "core.MissionInfo().safeArea"
				}, {
					"name": "scriptName",
					"value": "store"
				} ],
				"scriptName": "store"
			}, {
				"children": [],
				"id": "P74sIRXxZblNwT6dUlmrTFVQlGLMIVUH",
				"nodeType": "success",
				"parameters": []
			} ],
			"id": "KxU2ejkn1X5uED7bw0aeSwQn1TPZj9YE",
			"nodeType": "luaCondition",
			"parameters": [ {
				"name": "expression",
				"value": "misa == nil"
			}, {
				"name": "repeat",
				"value": "false"
			} ]
		}, {
			"children": [ {
				"children": [],
				"id": "3ZIUUsvUOWRlmRjGpdJdL4RaWUIaNtBw",
				"nodeType": "luaCommand",
				"parameters": [ {
					"name": "var",
					"value": "transportableUnits"
				}, {
					"name": "value",
					"value": "core.FilterUnitsByCategory(Sensors.getUnitsBelowZ(), Categories.nota_ama_firstkillerbot.transportableUnits)"
				}, {
					"name": "scriptName",
					"value": "store"
				} ],
				"scriptName": "store"
			}, {
				"children": [],
				"id": "oAxtqojq1BOniOEITfkUmYM7ipXBrkSO",
				"nodeType": "success",
				"parameters": []
			} ],
			"id": "ynWz0vSBV1zQikb3GIn8bcU2AsQNTbDK",
			"nodeType": "luaCondition",
			"parameters": [ {
				"name": "expression",
				"value": "transportableUnits == nil"
			}, {
				"name": "repeat",
				"value": "false"
			} ]
		}, {
			"children": [ {
				"children": [],
				"id": "EWZvka2PQvguq3QeKB8UQNGe0TKMWYQ0",
				"nodeType": "luaCommand",
				"parameters": [ {
					"name": "var",
					"value": "unitsLeft"
				}, {
					"name": "value",
					"value": "transportableUnits"
				}, {
					"name": "scriptName",
					"value": "store"
				} ],
				"scriptName": "store"
			}, {
				"children": [],
				"id": "c9sI5h7PSZSPKt290rSNl5hmXzfTXdsX",
				"nodeType": "success",
				"parameters": []
			} ],
			"id": "NgWRcmyGm6cKNqXc7Ku9pRHxpApncTMu",
			"nodeType": "luaCondition",
			"parameters": [ {
				"name": "expression",
				"value": "unitsLeft == nil"
			}, {
				"name": "repeat",
				"value": "false"
			} ]
		}, {
			"children": [ {
				"children": [ {
					"children": [],
					"id": "mghKiXguM9kbkOYX93WIHg9QYXoOoyHH",
					"nodeType": "luaCommand",
					"parameters": [ {
						"name": "ScoutUnits",
						"value": "units"
					}, {
						"name": "scriptName",
						"value": "nota_ama_firstkillerbot.scoutEnemyLocations"
					} ],
					"scriptName": "nota_ama_firstkillerbot.scoutEnemyLocations"
				} ],
				"id": "a98bU8I7cDkAfkhYcbV2crlFkCOSIGaK",
				"nodeType": "sequence",
				"parameters": []
			}, {
				"children": [ {
					"children": [],
					"id": "yuW5UV2Lhon3An6oxnFXge0XJQHDNxEP",
					"nodeType": "luaCommand",
					"parameters": [ {
						"name": "TransportUnits",
						"value": "units"
					}, {
						"name": "UnitsToTransport",
						"value": "unitsLeft"
					}, {
						"name": "TargetArea",
						"value": "misa"
					}, {
						"name": "scriptName",
						"value": "nota_ama_firstkillerbot.transportAlliesToSafePosition"
					} ],
					"scriptName": "nota_ama_firstkillerbot.transportAlliesToSafePosition"
				} ],
				"id": "Y9j0YKroGqGHW4Is87BzAL6CEz0WCZDd",
				"nodeType": "sequence",
				"parameters": []
			} ],
			"id": "239DPHdAik4GT7BQWama6fBQLR40uKV2",
			"nodeType": "roleSplit",
			"parameters": [ {
				"name": "mode",
				"value": "all-success"
			} ]
		} ],
		"id": "qrhee9vW2oyuL1jSDjKAAML3sPZiXSZy",
		"nodeType": "sequence",
		"parameters": []
	}
}